tezt/_regressions/alpha.alpha.operation.internal.out

./tezos-codec encode alpha.operation.internal from '{
  "source": "tz1KqTpEZ7Yob7QbPE4Hy4Wo8fHG8LhKxZSx",
  "nonce": 0,
  "kind": "delegation"
}'
000002298c03ed7d454a101eb7022bc95f7e5f41ac7800000300

./tezos-codec decode alpha.operation.internal from 000002298c03ed7d454a101eb7022bc95f7e5f41ac7800000300
{ "source": "tz1KqTpEZ7Yob7QbPE4Hy4Wo8fHG8LhKxZSx", "nonce": 0,
  "kind": "delegation" }

./tezos-codec encode alpha.operation.internal from '{
  "source": "tz1KqTpEZ7Yob7QbPE4Hy4Wo8fHG8LhKxZSx",
  "nonce": 0,
  "kind": "delegation",
  "delegate": "tz1KqTpEZ7Yob7QbPE4Hy4Wo8fHG8LhKxZSx"
}'
000002298c03ed7d454a101eb7022bc95f7e5f41ac78000003ff0002298c03ed7d454a101eb7022bc95f7e5f41ac78

./tezos-codec decode alpha.operation.internal from 000002298c03ed7d454a101eb7022bc95f7e5f41ac78000003ff0002298c03ed7d454a101eb7022bc95f7e5f41ac78
{ "source": "tz1KqTpEZ7Yob7QbPE4Hy4Wo8fHG8LhKxZSx", "nonce": 0,
  "kind": "delegation", "delegate": "tz1KqTpEZ7Yob7QbPE4Hy4Wo8fHG8LhKxZSx" }

./tezos-codec encode alpha.operation.internal from '{
  "source": "tz1KqTpEZ7Yob7QbPE4Hy4Wo8fHG8LhKxZSx",
  "nonce": 0,
  "kind": "origination",
  "balance": "84143",
  "delegate": "tz1KqTpEZ7Yob7QbPE4Hy4Wo8fHG8LhKxZSx",
  "script": {
    "code": [
      {
        "prim": "parameter",
        "args": [
          {
            "prim": "string"
          }
        ]
      },
      {
        "prim": "storage",
        "args": [
          {
            "prim": "option",
            "args": [
              {
                "prim": "string"
              }
            ]
          }
        ]
      },
      {
        "prim": "code",
        "args": [
          [
            {
              "prim": "CAR"
            },
            {
              "prim": "SOME"
            },
            {
              "prim": "NIL",
              "args": [
                {
                  "prim": "operation"
                }
              ]
            },
            {
              "prim": "PAIR"
            }
          ]
        ]
      }
    ],
    "storage": [
      {
        "string": "test"
      }
    ]
  }
}'
000002298c03ed7d454a101eb7022bc95f7e5f41ac78000002af9105ff0002298c03ed7d454a101eb7022bc95f7e5f41ac7800000020020000001b050003680501056303680502020000000a03160346053d036d03420000000e0200000009010000000474657374

./tezos-codec decode alpha.operation.internal from 000002298c03ed7d454a101eb7022bc95f7e5f41ac78000002af9105ff0002298c03ed7d454a101eb7022bc95f7e5f41ac7800000020020000001b050003680501056303680502020000000a03160346053d036d03420000000e0200000009010000000474657374
{ "source": "tz1KqTpEZ7Yob7QbPE4Hy4Wo8fHG8LhKxZSx", "nonce": 0,
  "kind": "origination", "balance": "84143",
  "delegate": "tz1KqTpEZ7Yob7QbPE4Hy4Wo8fHG8LhKxZSx",
  "script":
    { "code":
        [ { "prim": "parameter", "args": [ { "prim": "string" } ] },
          { "prim": "storage",
            "args":
              [ { "prim": "option", "args": [ { "prim": "string" } ] } ] },
          { "prim": "code",
            "args":
              [ [ { "prim": "CAR" }, { "prim": "SOME" },
                  { "prim": "NIL", "args": [ { "prim": "operation" } ] },
                  { "prim": "PAIR" } ] ] } ],
      "storage": [ { "string": "test" } ] } }

./tezos-codec encode alpha.operation.internal from '{
  "source": "tz1KqTpEZ7Yob7QbPE4Hy4Wo8fHG8LhKxZSx",
  "nonce": 0,
  "kind": "reveal",
  "public_key": "edpkuBknW28nW72KG6RoHtYW7p12T6GKc7nAbwYX5m8Wd9sDVC9yav"
}'
000002298c03ed7d454a101eb7022bc95f7e5f41ac78000000004798d2cc98473d7e250c898885718afd2e4efbcb1a1595ab9730761ed830de0f

./tezos-codec decode alpha.operation.internal from 000002298c03ed7d454a101eb7022bc95f7e5f41ac78000000004798d2cc98473d7e250c898885718afd2e4efbcb1a1595ab9730761ed830de0f
{ "source": "tz1KqTpEZ7Yob7QbPE4Hy4Wo8fHG8LhKxZSx", "nonce": 0,
  "kind": "reveal",
  "public_key": "edpkuBknW28nW72KG6RoHtYW7p12T6GKc7nAbwYX5m8Wd9sDVC9yav" }

./tezos-codec encode alpha.operation.internal from '{
  "source": "tz1KqTpEZ7Yob7QbPE4Hy4Wo8fHG8LhKxZSx",
  "nonce": 3,
  "kind": "transaction",
  "amount": "407",
  "destination": "tz1KqTpEZ7Yob7QbPE4Hy4Wo8fHG8LhKxZSx"
}'
000002298c03ed7d454a101eb7022bc95f7e5f41ac780003019703000002298c03ed7d454a101eb7022bc95f7e5f41ac7800

./tezos-codec decode alpha.operation.internal from 000002298c03ed7d454a101eb7022bc95f7e5f41ac780003019703000002298c03ed7d454a101eb7022bc95f7e5f41ac7800
{ "source": "tz1KqTpEZ7Yob7QbPE4Hy4Wo8fHG8LhKxZSx", "nonce": 3,
  "kind": "transaction", "amount": "407",
  "destination": "tz1KqTpEZ7Yob7QbPE4Hy4Wo8fHG8LhKxZSx" }

./tezos-codec encode alpha.operation.internal from '{
  "source": "tz1KqTpEZ7Yob7QbPE4Hy4Wo8fHG8LhKxZSx",
  "nonce": 0,
  "kind": "transaction",
  "amount": "407",
  "destination": "KT1DieU51jzXLerQx5AqMCiLC1SsCeM8yRat",
  "parameters": {
    "entrypoint": "action",
    "value": [
      {
        "prim": "UNIT"
      }
    ]
  }
}'
000002298c03ed7d454a101eb7022bc95f7e5f41ac7800000197030138560805b4c8d7b7fbbafad5c59dbfa3878ca70500ffff06616374696f6e000000070200000002034f

./tezos-codec decode alpha.operation.internal from 000002298c03ed7d454a101eb7022bc95f7e5f41ac7800000197030138560805b4c8d7b7fbbafad5c59dbfa3878ca70500ffff06616374696f6e000000070200000002034f
{ "source": "tz1KqTpEZ7Yob7QbPE4Hy4Wo8fHG8LhKxZSx", "nonce": 0,
  "kind": "transaction", "amount": "407",
  "destination": "KT1DieU51jzXLerQx5AqMCiLC1SsCeM8yRat",
  "parameters": { "entrypoint": "action", "value": [ { "prim": "UNIT" } ] } }
